777-200ER
f-14b
Citation-X
B1900D
c172p
bo105
777-300ER
777-200
ufo
CH47
uh1
ec135
A380
777-300
PC-9M
PC-21
CRJ-200
737-300
uh60
SenecaII
m2000-5
f16
followme
bluebird-osg
atc-tower2
A330-243
A-10-model
777-200LR
747-8i
v22
Jeep
DHC6
Cub
Concorde_ba
cap10b
a6m2-anim
A340-600-Models
A-6E-model
717-200
XB-70
SA-315B-Lama
s76c
raven
il-96-400
harrier-model
Dragonfly
dhc2
CRJ700
